Attacker,Fast Move,Charged Move,Level,"Arceus (Ground), Tier 5","Arceus (Rock), Tier 5","Arceus (Water), Tier 5","Keldeo, Tier 5","Manaphy, Tier 5","Phione, Tier 5","Groudon, Tier 5","Kyogre, Tier 5","Regirock, Tier 5","Suicune, Tier 5","Terrakion, Tier 5","Mega Blastoise, Mega Tier","Mega Gyarados, Mega Tier","Mega Sharpedo, Mega Tier","Mega Slowbro, Mega Tier","Mega Swampert, Mega Tier","Alomomola, Tier 3","Azumarill, Tier 3","Boldore, Tier 3","Claydol, Tier 3","Cloyster, Tier 3","Crawdaunt, Tier 3","Dewgong, Tier 3","Donphan, Tier 3","Floatzel, Tier 3","Golem, Tier 3","Golurk, Tier 3","Graveler, Tier 3","Hippowdon, Tier 3","Kabutops, Tier 3","Lapras, Tier 3","Lumineon, Tier 3","Nosepass, Tier 3","Octillery, Tier 3","Omastar, Tier 3","Onix, Tier 3","Piloswine, Tier 3","Poliwrath, Tier 3","Rhydon, Tier 3","Sharpedo, Tier 3","Slowbro, Tier 3","Slowking, Tier 3","Starmie, Tier 3","Stunfisk, Tier 3","Sudowoodo, Tier 3","Vaporeon, Tier 3","Walrein, Tier 3","Whiscash, Tier 3"
(Battle settings),,,,"Extreme,Best Friend,No Dodging,Realistic Dodging","Extreme,Best Friend,No Dodging,Realistic Dodging","Extreme,Best Friend,No Dodging,Realistic Dodging","Extreme,Best Friend,No Dodging,Realistic Dodging","Extreme,Best Friend,No Dodging,Realistic Dodging","Extreme,Best Friend,No Dodging,Realistic Dodging","Extreme,Best Friend,No Dodging,Realistic Dodging","Extreme,Best Friend,No Dodging,Realistic Dodging","Extreme,Best Friend,No Dodging,Realistic Dodging","Extreme,Best Friend,No Dodging,Realistic Dodging","Extreme,Best Friend,No Dodging,Realistic Dodging","Extreme,Best Friend,No Dodging,Realistic Dodging","Extreme,Best Friend,No Dodging,Realistic Dodging","Extreme,Best Friend,No Dodging,Realistic Dodging","Extreme,Best Friend,No Dodging,Realistic Dodging","Extreme,Best Friend,No Dodging,Realistic Dodging","Extreme,No Friend,No Dodging,Realistic Dodging","Extreme,No Friend,No Dodging,Realistic Dodging","Extreme,No Friend,No Dodging,Realistic Dodging","Extreme,No Friend,No Dodging,Realistic Dodging","Extreme,No Friend,No Dodging,Realistic Dodging","Extreme,No Friend,No Dodging,Realistic Dodging","Extreme,No Friend,No Dodging,Realistic Dodging","Extreme,No Friend,No Dodging,Realistic Dodging","Extreme,No Friend,No Dodging,Realistic Dodging","Extreme,No Friend,No Dodging,Realistic Dodging","Extreme,No Friend,No Dodging,Realistic Dodging","Extreme,No Friend,No Dodging,Realistic Dodging","Extreme,No Friend,No Dodging,Realistic Dodging","Extreme,No Friend,No Dodging,Realistic Dodging","Extreme,No Friend,No Dodging,Realistic Dodging","Extreme,No Friend,No Dodging,Realistic Dodging","Extreme,No Friend,No Dodging,Realistic Dodging","Extreme,No Friend,No Dodging,Realistic Dodging","Extreme,No Friend,No Dodging,Realistic Dodging","Extreme,No Friend,No Dodging,Realistic Dodging","Extreme,No Friend,No Dodging,Realistic Dodging","Extreme,No Friend,No Dodging,Realistic Dodging","Extreme,No Friend,No Dodging,Realistic Dodging","Extreme,No Friend,No Dodging,Realistic Dodging","Extreme,No Friend,No Dodging,Realistic Dodging","Extreme,No Friend,No Dodging,Realistic Dodging","Extreme,No Friend,No Dodging,Realistic Dodging","Extreme,No Friend,No Dodging,Realistic Dodging","Extreme,No Friend,No Dodging,Realistic Dodging","Extreme,No Friend,No Dodging,Realistic Dodging","Extreme,No Friend,No Dodging,Realistic Dodging","Extreme,No Friend,No Dodging,Realistic Dodging"
(Boss weights),,,,1.8518518518518516,1.8518518518518516,1.8518518518518516,5.555555555555555,5.555555555555555,5.555555555555555,5.555555555555555,5.555555555555555,5.555555555555555,5.555555555555555,5.555555555555555,5.0,5.0,5.0,5.0,5.0,0.78125,0.78125,0.78125,0.78125,0.78125,0.78125,0.78125,0.78125,0.78125,0.78125,0.78125,0.78125,0.78125,0.78125,0.78125,0.78125,0.78125,0.78125,0.78125,0.78125,0.78125,0.78125,0.78125,0.78125,0.78125,0.78125,0.78125,0.78125,0.78125,0.78125,0.78125,0.78125
Shadow Bellossom,Razor Leaf,Leaf Blade,40,1.3678411679258937,1.3713273948985636,1.3677789699877123,1.3671651880536155,1.3019796961079522,1.3090673239071215,1.3727412646734571,1.3521379770189412,1.3243595069990421,1.2995252315531747,1.3411047297706231,1.3146119029793988,1.3583206499732026,1.3258813364588697,1.3140544185570977,1.4007315047586422,1.2841052840807285,1.3164638388858798,1.3290697161526095,1.2906191098399338,1.284921741253641,1.3028136155308014,1.3093530469270316,1.3692052040714209,1.3011857299771254,1.32125734805475,1.3445126517611385,1.3123939389056198,1.353000281459133,1.3250656508876233,1.3175646794414984,1.326478338962999,1.3409311400758912,1.2988821206626002,1.3155447484867933,1.280171588694118,1.3039789957326098,1.3942997683282556,1.301789692949117,1.360526975530946,1.3033704968721658,1.2904869474050416,1.3347577713417855,1.2984024783446295,1.3304909802302718,1.300418297798741,1.3264882569635208,1.303178501994651
(Unscaled),,,,3.3535035,3.3590212,3.3538337,2.6696286,2.7648363,2.144465,3.2946916,3.1914752,3.9648614,3.0587952,2.6923175,3.220099,3.3735723,2.047573,3.4959314,1.9952874,0.70805514,0.8199555,0.79246247,1.185683,1.3440257,0.7696629,0.95330447,1.0110826,0.62664056,0.67001885,0.8458767,0.5513597,1.0244877,0.6345697,0.9478491,0.89854807,1.1260543,0.7632767,0.6696017,0.7363113,0.761965,0.9944911,0.5809073,0.5031798,0.97935903,0.9815094,1.016103,0.88082105,0.93854743,0.8460007,0.955203,0.47739312
Zarude,Vine Whip,Power Whip,40,1.0,1.0,1.0,1.0490333642396619,1.0088089203651243,1.038824597681854,1.018125005728971,1.0334924828128011,1.0686244624465653,1.0260238110714728,1.0172557209528035,1.019925801012906,1.0237480173714757,1.0388933342372964,1.00779261589165,1.0135842258931624,1.0438112396164234,1.02895292288173,1.0383489572807538,1.0337821157269915,1.0436227369820268,1.0458407511271268,1.030604710050326,1.0531296918700366,1.0542331750817924,1.0060667669742285,1.0396246056693583,1.0401315555673194,1.0371829807663253,1.0406103360891115,1.0423555501670752,1.0532508643053515,1.0448785390509499,1.047374142767788,1.046436175534089,1.0466804284883966,1.0250485677477297,1.0914796838330736,1.0175394516426053,1.0282202251643568,1.0116601043373497,1.0,1.0233127150362835,1.052509160314233,1.060365443373813,1.0538329690013122,1.0542662808493997,1.0453018018190168
(Unscaled),,,,2.4516761,2.449467,2.452029,2.0484207,2.1422696,1.7017635,2.4435835,2.4393706,3.199243,2.4150333,2.0421786,2.498275,2.5426161,1.6043743,2.6811476,1.4438112,0.5755571,0.6408802,0.6191192,0.9497286,1.0916274,0.6178511,0.75035536,0.77767825,0.5077102,0.5101835,0.6540617,0.4369775,0.7853518,0.49834496,0.7498651,0.7134655,0.8774425,0.61548024,0.5326276,0.6020151,0.59897524,0.7785032,0.4540642,0.38027886,0.7601664,0.7605729,0.7790111,0.7140099,0.747997,0.68558204,0.7591762,0.3829252
Abomasnow,Unknown,Unknown,40,,,,,,,,,,,,,,,,,,,,,,,,,,,,,,,,,,,,,,,,,,,,,,,,
(Unscaled),,,,,,,,,,,,,,,,,,,,,,,,,,,,,,,,,,,,,,,,,,,,,,,,,,,
Exeggutor,Bullet Seed or Confusion or Extrasensory,Seed Bomb or Solar Beam,40,1.3036888518838197,1.3069126058852805,1.300135398072372,1.2737780925597175,1.2539089369269099,1.2425595140897192,1.4345536110849546,1.4052005795660474,1.264685255378507,1.275825895294333,1.1826599368948152,1.3222848771124696,1.3707654752931258,1.359794196880952,1.2499149757030479,1.3015861438115892,1.2301083461068887,1.2181542958803235,1.222626886047629,1.2187237262668322,1.322299725018621,1.2834179040677725,1.2490434680373352,1.2819723448560618,1.2461448171246388,1.2535417574594712,1.2870214301573992,1.2562903528448335,1.2570078199997,1.2641083423401451,1.2279332206404512,1.2886018869086027,1.2565425293433625,1.2093056470985597,1.1973696598272396,1.1909304112325119,1.2471756092017912,1.1905189655417285,1.2135711875722486,1.2940363913396062,1.2386271375857603,1.2246319846526217,1.2383973722019181,1.222911951753885,1.280212360295761,1.2461915913608272,1.2890494377787722,1.219315573016446
(Unscaled),,,,3.1962228,3.2012393,3.1879697,2.487274,2.662755,2.0355144,3.4430463,3.3167198,3.7862089,3.0030122,2.3742337,3.2388937,3.4044807,2.099945,3.3252938,1.8540587,0.67828125,0.7587237,0.72899556,1.1196332,1.383123,0.7582045,0.9093947,0.94666594,0.6001333,0.6356798,0.8097071,0.5277896,0.9518025,0.60537744,0.8833687,0.8728908,1.0551885,0.71063787,0.60945153,0.6849828,0.7287726,0.84914345,0.5415409,0.4785888,0.93071055,0.9314219,0.9427473,0.82960916,0.90308017,0.81072295,0.92824334,0.44667163
Shadow Shiftry,Razor Leaf or Snarl,Leaf Blade,40,1.1739714312180145,1.179176081980284,1.1750111846148639,1.2823875663865123,1.10577725655741,1.1144197233180468,1.1843712839811307,1.188868176517085,1.2452107448625247,1.114479439233675,1.2390178492840804,1.2952558584776428,1.1720839622670758,1.130639044249445,1.070310056773076,1.1895118223664953,1.1238073078036328,1.1462107160320731,1.1208631899016106,1.0476984590720821,1.1543556341067922,1.1155050469153152,1.1626427793150933,1.1835740215688402,1.1449502248729495,1.1480490310723377,1.1040892382983765,1.1315193631648741,1.1781043864729726,1.142858544889003,1.161376159075058,1.1628900593554383,1.1030259998297123,1.1629178033862975,1.14722106808917,1.0979689171528015,1.1550454325781088,1.2059200380924144,1.1462849464177636,1.157426915245717,1.0392454965760538,1.1226013969206634,1.0963919650630516,1.1198071370039842,1.1665762115556624,1.1482977661537488,1.1772840710396666,1.1065116733609988
(Unscaled),,,,2.8781977,2.8883529,2.8811615,2.5040855,2.348188,1.8256006,2.8425882,2.8061066,3.7279062,2.6232383,2.4873743,3.172687,2.9110284,1.7460582,2.84747,1.6944132,0.6196669,0.71391386,0.6683186,0.96251345,1.2074538,0.65900666,0.8464887,0.8740042,0.5513988,0.5821837,0.6946185,0.47537112,0.89205706,0.5473113,0.8354879,0.7877344,0.92627215,0.68337846,0.5839263,0.6315145,0.6749374,0.86012834,0.51151526,0.4280649,0.7808942,0.8538202,0.8346437,0.75966406,0.8229196,0.7470371,0.8477612,0.4053482
Carnivine,Vine Whip,Power Whip,40,1.4569534695060251,1.4581963341412643,1.4624694079882414,1.420391109731806,1.3693085108411887,,1.387278517983969,1.416532020244563,1.4087929990138939,,1.3984831463388647,1.4160802874943346,1.4455420114721378,1.4185901297465429,1.3734914013447521,1.4554747374620998,1.3476570167987063,1.3848134219038333,1.373127101140706,,,1.38205226716323,,,1.381535019045377,1.3950704683626929,,1.3755103958647,1.4080947974223244,1.3961735179687982,,,1.3490181368267309,1.361049575077474,1.41171100227202,1.3429369359564132,1.390951031114847,,1.3939154455529326,,,,,,1.4238923548975155,1.3524399055067042,,1.3584632208463523
(Unscaled),,,,3.571978,3.5718038,3.5860174,2.7735615,2.9078133,,3.3295822,3.3434656,4.217638,,2.8075068,3.4686425,3.5901983,2.1907442,3.6540585,2.073267,0.74309754,0.86252683,0.81873184,,,0.8164747,,,0.66533613,0.70745,,0.57787603,1.0662051,0.66862303,,,1.1328454,0.79980886,0.71854955,0.7724118,0.8127861,,0.62201726,,,,,,1.0044341,0.8798439,,0.49764556
Venusaur,Vine Whip,Frenzy Plant,40,1.2208091435895632,1.224290672215629,1.2239981256339139,1.2225898376816,1.2133209309089117,1.2285316017183887,1.2765976329142088,1.2413520857806557,1.235838461105258,1.2035118420208526,1.2165146537017921,1.2091468537201189,1.2396904423987956,1.2426500389267474,1.2659659241261516,1.2156139760934137,1.2292140581893785,1.1979486903171208,1.210648256152794,1.204115258499791,1.2429377261775139,1.2056198136204566,1.1751978407656707,1.2300736994730412,1.1857877854018903,1.2415880672126396,1.2217986107443142,1.2317297257269888,1.2411760078909984,1.1930882185890572,1.1784669151181173,1.2302872022577123,1.2323375077626761,1.2260430700881375,1.210054418148373,1.1763721818792867,1.2151732626163196,1.2659076551415627,1.213761982858274,1.236666543731234,1.2430121899384905,1.245650614162035,1.2232849533125807,1.21500105470569,1.1999701168540164,1.2261334857680557,1.2044633856645564,1.2518931574772243
(Unscaled),,,,2.9930286,2.9988596,3.0012789,2.38732,2.5765638,2.0125344,3.063939,2.9299853,3.6998475,2.8328009,2.4421983,2.9617658,3.0789382,1.919038,3.367996,1.7315947,0.67778814,0.7461387,0.72185326,1.1062125,1.3001105,0.71224374,0.8556297,0.90834165,0.57106584,0.629618,0.7686733,0.51747125,0.9398147,0.57136613,0.8477829,0.8333888,1.0348622,0.72047347,0.61590797,0.6766094,0.7100724,0.9029148,0.54162604,0.45737103,0.9340055,0.9474081,0.93124276,0.8242425,0.84647614,0.79767394,0.867333,0.45860577
Simisage,Vine Whip,Solar Beam or Grass Knot,40,1.3230853782030996,1.3278137651987147,1.3286838369366756,1.3488028342665404,1.2569153931036576,1.2695420631347623,1.3424016346108176,1.3882893815523223,1.265998237554911,1.284713858013008,1.3367380856871836,1.289254717168312,1.3090057084481868,1.3122118091635566,1.3202166503283697,1.3624636265927956,1.2358461268379595,1.2696155729812024,1.2694692777484744,1.27153069163895,1.3300542324120854,1.2770608590889814,1.2785603474597118,1.3029245648524352,1.294955227033077,1.2949681230982812,1.3273124613465808,1.2664396555887585,1.3435496360154429,1.297185322599775,1.2829469673353464,1.3203945357035354,1.2909992253697653,1.2577888508982114,1.3100025587830504,1.2331695139890895,1.292617086263713,1.3359367598850045,1.301357860066605,1.3344636723633,1.2464737056426591,1.289611686138173,1.2650242727236913,1.2679336450820275,1.2959107650702033,1.2435238146358853,1.3111596723284336,1.2531228963627858
(Unscaled),,,,3.2437768,3.252436,3.2579713,2.6337729,2.6691394,2.0797162,3.221874,3.276804,3.7901397,3.0239325,2.6835513,3.1579874,3.251092,2.026463,3.5123255,1.9407763,0.68144506,0.7907762,0.7569255,1.1681466,1.3912342,0.75444895,0.93088514,0.962138,0.62364,0.6566874,0.8350555,0.5320535,1.0173317,0.6212179,0.9229453,0.89442694,1.0841237,0.7391286,0.66678077,0.7092773,0.7553258,0.9528634,0.5807146,0.4935405,0.9366065,0.9808437,0.9630174,0.86015135,0.91415405,0.8089874,0.9441649,0.45905626
Shadow Vileplume,Razor Leaf,Solar Beam,40,,,,1.1904662041727896,1.2132282564875745,1.1526896751695879,,1.3318927363041,1.1592298525143034,1.1942970006954774,1.2605177757362491,1.1498249374537501,1.2552621365774927,1.2171250620584237,1.2901348135028505,1.3060241031519992,1.1429959869394175,1.1223110087909878,1.2279737393575048,1.2155160177521724,1.220489979857516,1.2017943470601078,1.169710752865544,1.2468911356825676,1.183620037328698,1.2568661840597743,1.266153650255303,1.2160447101552747,1.2291928641657515,1.1903943605386378,1.2101007855575925,1.148467058373882,1.1190507236927891,1.1430339027941605,1.179257055455257,1.119349175829382,1.216836425605437,1.2061571202451096,1.232938320908259,1.2302239789851794,1.1773320920674277,1.1932677853759976,1.1593831243582957,1.1540035994134923,1.2020007815264888,1.1626149601103932,1.2561377177113537,1.1546326288497415
(Unscaled),,,,,,,2.324593,2.576367,1.888293,,3.14369,3.470497,2.8111112,2.5305362,2.8164587,3.1176126,1.8796195,3.4322953,1.8603804,0.63024753,0.699028,0.73218364,1.1166863,1.2766302,0.70998377,0.8516347,0.9207604,0.57002187,0.63736564,0.7965785,0.5108817,0.9307411,0.57007605,0.87054014,0.77796435,0.939729,0.67169386,0.60023236,0.6438117,0.71104425,0.86029744,0.55018324,0.4549883,0.88465315,0.90756714,0.8825966,0.78286254,0.8479086,0.7563513,0.90454364,0.42297634
Shadow Abomasnow,Razor Leaf,Energy Ball,40,1.5675280270505556,,,,,,1.558487001694109,,,,,,,,,,,,,1.4619447493461366,,,,1.5644415717408298,,,1.5265855016852807,,1.5300778545122526,,,,,,,,,,,,,,,1.4410566927525137,,,,1.4002054978874228
(Unscaled),,,,3.843071,,,,,,3.7404966,,,,,,,,,,,,,1.3430787,,,,1.1552539,,,0.96042466,,1.1585703,,,,,,,,,,,,,,,0.977596,,,,0.512937
Vileplume,Razor Leaf or Acid,Solar Beam,40,,,,1.4030177584640962,,1.3845888915171725,,,1.3656595570959857,,,1.4246343511246566,,1.4072406016172005,,1.3918235739693823,1.3661777230161212,1.2714006984958233,,,1.3898464060307565,,1.3842705860910358,1.413610277489898,1.3821670271308941,,,1.40271271232124,,1.369343165375087,1.3214335289690888,1.3758777207405384,1.3585925903432607,1.364572540892467,1.3924982233511114,1.3510975351294174,,1.4236564553705746,1.387917831367982,,,1.3659399381702924,1.3807214598636526,1.3725238185859043,1.3755999860223995,1.3536418537837929,1.3984272442501315,1.3676190143417217
(Unscaled),,,,,,,2.739637,,2.2681816,,,4.0885053,,,3.4895954,,2.173217,,1.9825984,0.75330985,0.79188806,,,1.4537767,,1.0078499,1.0438733,0.6656405,,,0.5893042,,0.65577406,0.95063233,0.9320109,1.1408856,0.8018791,0.7087704,0.7771055,,1.0154299,0.6193409,,,1.0388969,1.0510935,0.9311041,0.97036797,0.88062584,1.0070062,0.5009996
Ludicolo,Unknown,Unknown,40,,,,,,,,,,,,,,,,,,,,,,,,,,,,,,,,,,,,,,,,,,,,,,,,
(Unscaled),,,,,,,,,,,,,,,,,,,,,,,,,,,,,,,,,,,,,,,,,,,,,,,,,,,
Breloom,Counter or Bullet Seed,Grass Knot,40,,1.3707562094120884,,1.2712071571580412,1.2270273271345387,1.2052709056641207,1.3273897308508626,1.3155027816806188,1.080932885393571,1.2349704453986547,1.159632865564477,1.2817714985714854,1.1461463716866251,1.1298199734263354,1.3750424745603693,1.3414735819373083,1.2206604792604132,1.2413315142454897,1.043953352055795,1.2350510485981612,1.1514400456367941,1.0927789517733786,1.1242919493363919,1.2985213927267965,1.2389146296759037,1.1989760740829847,1.2823620783136376,1.1571597595558556,1.2380726277612102,1.1946361512542993,1.1445135114554772,1.2248203223620178,1.0706346073351112,1.2614043221336881,1.1880941498565123,1.1515089293336307,1.1154949939966294,1.300166937521226,1.2219443083933073,1.149458752422387,1.2668647081292812,1.3259653348153742,1.2181053833402886,1.194872759450598,1.080339377842257,1.1975236305484545,1.1413784574928645,1.2068408849075343
(Unscaled),,,,,3.3576221,,2.4822538,2.6056702,1.9744296,3.1858442,3.1050045,3.2360919,2.9068475,2.328006,3.1396575,2.8466089,1.7447933,3.658185,1.9108768,0.6730717,0.77315956,0.62246084,1.134633,1.2044041,0.64558077,0.8185665,0.9588865,0.5966513,0.60800916,0.80677575,0.4861431,0.93746483,0.57210743,0.823357,0.82968557,0.8990713,0.7412532,0.60473037,0.6623089,0.65182656,0.9273504,0.5452773,0.42511794,0.9519284,1.0084933,0.92729974,0.8105877,0.7620869,0.7790615,0.8219056,0.44210178
Roserade,Razor Leaf or Poison Jab,Grass Knot,40,1.2827572532929616,1.2916429166018568,1.2823720681933208,1.1388125875561954,1.1692749634541153,1.128284648195768,1.2428762850602606,1.2003627308306843,1.1670559718276006,1.1453851869695497,1.1625384158529375,1.1466642911842795,1.190526932161159,1.1538173433859724,1.1878612592917799,1.1571174640793958,1.1429009741755345,1.0754604148665992,1.139456959162504,1.1448303960451651,1.1682818544316667,1.1288023420697373,1.1176951648660458,1.1509820705647775,1.1269461860179804,1.1731386078283281,1.1940401686722404,1.1395318828995304,1.18631045481218,1.1429282885164402,1.1119250746815303,1.1404889948046462,1.1129241785257733,1.1257251107835795,1.147247984034954,1.0995901879474468,1.1761550327686832,1.1657792115741181,1.163178060541043,1.1697272001458787,1.18307553314728,1.1841678818690489,1.1434404678314147,1.1366861722114017,1.1418628498271974,1.1264039817730078,1.163998052490275,1.1463117660643498
(Unscaled),,,,3.1449053,3.1638367,3.1444135,2.2237303,2.4830294,1.8483136,2.983005,2.8332374,3.4939268,2.6959836,2.333839,2.8087168,2.956834,1.7818527,3.1602051,1.6482687,0.63019514,0.66984725,0.6794052,1.0517479,1.2220206,0.6668623,0.81376356,0.84993684,0.5427282,0.5949068,0.75120956,0.47873732,0.89827067,0.5473447,0.79991305,0.77256006,0.9345842,0.6615225,0.58394,0.632447,0.68727255,0.8314977,0.5190536,0.43261406,0.8889688,0.900646,0.87046003,0.7711146,0.80548644,0.73279387,0.83819395,0.41992816
Shadow Cacturne,Sucker Punch or Poison Jab,Grass Knot,40,1.2910389345476754,1.3023799463311816,1.2927075495436635,,1.1578106477918508,1.1494902367744348,1.3816771676967705,1.2535630267061084,1.2675731280768217,1.20038444560853,,,,1.3889730364526989,1.2566920737208014,,1.225926714491632,1.1066183898529425,1.1753936035595598,1.0158544005768195,1.3673400553978061,1.28158531199049,1.2281116355244097,1.307010854838323,1.214979324612451,1.319536508074233,1.1814254982856793,1.2822094093526637,1.2371633663188504,1.3321379470482992,1.223366103566451,1.2833791338773892,1.1390400301040005,1.2282961454509218,1.328144672462017,1.199979971003159,1.2894686366666985,1.4522689484054978,1.381255548615553,1.2716168889923327,1.0072532927451874,1.1092980041755365,1.0728145980690509,1.1493236248325627,1.2211605845557296,1.1981741465865954,1.2332604637333944,1.3778264012373551
(Unscaled),,,,3.1652093,3.1901367,3.1697564,,2.4586842,1.8830518,3.3161385,2.958807,3.7948546,2.8254397,,,,2.1450062,3.3433237,,0.6759755,0.6892539,0.70083255,0.93325853,1.4302351,0.75712186,0.8941548,0.9651555,0.58512425,0.6691462,0.74327326,0.53867865,0.93677634,0.6379566,0.88008314,0.86935294,0.95651513,0.72179747,0.67601496,0.6901878,0.75348604,1.0358379,0.61636794,0.47029713,0.7568551,0.843702,0.8166951,0.7796877,0.8614242,0.7794847,0.88806975,0.50473887
Torterra,Razor Leaf,Frenzy Plant,40,1.2238709672945787,1.2312801111425464,1.2269212558252776,1.2607309615606694,1.2235015551455426,1.2609316841277958,1.1896879356621983,1.3161261299697071,1.2047294547917335,1.26761335707388,1.220434033323718,1.2559162861281599,1.2507551130607089,1.229340283747269,1.248541205585893,1.2057668830526074,1.2068222392616899,1.2285638032174069,1.2167822914247044,1.195627005838293,1.2495300899686146,1.2317553079941785,1.2770075633909737,1.2318439737345332,1.2519580996309865,1.1825028051279118,1.2208915682111323,1.2043877340705111,1.218299265226844,1.1974222838824564,1.2442593060938978,1.2595057202333,1.2495179846991178,1.2473723423495602,1.2189768184157566,1.246514876311382,1.2038151180891072,1.2932239775663923,1.1804307590147523,1.260385385277123,1.1996092812485368,1.18447344100743,1.2355073102960592,1.2516664128788777,1.2186312059004756,1.244954980662519,1.2830591650510326,1.241493539428133
(Unscaled),,,,3.0005352,3.01598,3.0084465,2.4617972,2.598183,2.065611,2.8553486,3.1064758,3.6067135,2.9836817,2.4500666,3.076326,3.1064188,1.8984836,3.321639,1.7175679,0.6654413,0.76520723,0.7255107,1.0984144,1.3070061,0.7276838,0.9297546,0.9096489,0.60293293,0.59965545,0.76810265,0.5059844,0.9224925,0.5734417,0.8951136,0.85318124,1.0492896,0.73300743,0.6204494,0.7169531,0.7034354,0.9223983,0.5267524,0.46614325,0.90139234,0.9008784,0.9405472,0.84911585,0.85963994,0.80991846,0.92392975,0.45479608
Maractus,Unknown,Unknown,40,,,,,,,,,,,,,,,,,,,,,,,,,,,,,,,,,,,,,,,,,,,,,,,,
(Unscaled),,,,,,,,,,,,,,,,,,,,,,,,,,,,,,,,,,,,,,,,,,,,,,,,,,,
Mega Abomasnow,Razor Leaf,Energy Ball,40,1.3418100376309907,1.3493889895230269,1.3471100056320704,1.3923151554444941,1.2895911791280252,1.2778717618062923,1.3984637608215054,1.2806077758091634,1.3854734361606673,1.2584209052761537,,1.3174939580743144,1.328865231267706,1.2989649946782091,1.2967637767928022,1.2756658834464405,1.266536827375283,1.2790040750941452,1.3278391321811946,1.253937549554084,1.2493745447529971,1.2856040348848587,1.2646142577206212,1.319641858180617,1.2856533687004812,1.3437730104297516,1.328624426486138,1.3409430927578763,1.3478685915484923,1.3274284564022978,1.2385144767669556,1.3036657559702727,1.3189567677734768,1.2694469333023666,1.3285961137775142,1.2729336795057984,1.2825461581850517,1.3670075607054741,1.3085270030233231,1.2998706960791673,1.246589888003664,1.278880223052912,1.2864989525249697,1.2928458966641967,1.351665726675393,1.2841749184749076,1.2595853820675513,1.2692927793480084
(Unscaled),,,,3.2896836,3.3052838,3.3031528,2.7187383,2.7385285,2.0933616,3.3564277,3.0226412,4.147824,2.9620447,,3.2271585,3.3004158,2.0060058,3.4499311,1.8171363,0.6983679,0.7966238,0.79172873,1.1519839,1.3068434,0.759496,0.92073137,0.9744828,0.6191603,0.6814367,0.8358809,0.5633537,1.020602,0.63570124,0.8909808,0.88309497,1.1076012,0.74597937,0.67624474,0.7321483,0.74944097,0.9750248,0.58391374,0.48074657,0.9366938,0.97268164,0.9793653,0.87705153,0.9534844,0.8354334,0.9070263,0.46497977
Shadow Venusaur,Vine Whip,Frenzy Plant,40,1.1095767503708993,1.1109587106092877,1.1104517524058646,1.0197372373122093,1.0390838832070606,1.0342278620100265,1.1087439095830893,1.117513968564486,1.0512154571417938,1.0362014445706245,1.0504515209208338,1.0517254893859784,1.0521546506013946,1.0517470931533281,1.0830690388270106,1.0477206466165097,1.0370294791653822,1.0125740197881035,1.0502076717369373,1.0398663013941978,1.0455187251296154,1.0319854382528748,1.032731104261675,1.0367473592139371,1.0237803190809216,1.0657878909184848,1.0418913775200034,1.0476871793471698,1.0453950449035083,1.0473346240776717,1.0293365503339655,1.0194419581994931,1.0013183599273836,1.030447352537749,1.0340734262285793,1.0023657513890336,1.0297275859330826,1.0427314712901996,1.0415278018805414,1.0599518161601187,1.036281648614128,1.047473424309491,1.0162638328988562,1.039776776810567,1.0420866828127329,1.0097710521715708,1.0705495118657973,1.0326117886123378
(Unscaled),,,,2.7203228,2.7212567,2.7228599,1.9912149,2.2065604,1.6942333,2.6610763,2.637688,3.147124,2.4389892,2.1088204,2.5761673,2.6131678,1.6242245,2.8814142,1.4924372,0.57181764,0.63067865,0.62619,0.9553181,1.0936106,0.6096658,0.75190353,0.7655808,0.49304435,0.5404685,0.6554878,0.44015175,0.79156995,0.5015652,0.7404993,0.69056356,0.8408626,0.60553336,0.52633506,0.5765268,0.60170937,0.7437333,0.4647687,0.39201453,0.77866715,0.7966799,0.77364504,0.7053724,0.7351029,0.6569171,0.77090174,0.37827647
Shadow Cradily,Unknown,Unknown,40,,,,,,,,,,,,,,,,,,,,,,,,,,,,,,,,,,,,,,,,,,,,,,,,
(Unscaled),,,,,,,,,,,,,,,,,,,,,,,,,,,,,,,,,,,,,,,,,,,,,,,,,,,
Sunflora,Unknown,Unknown,40,,,,,,,,,,,,,,,,,,,,,,,,,,,,,,,,,,,,,,,,,,,,,,,,
(Unscaled),,,,,,,,,,,,,,,,,,,,,,,,,,,,,,,,,,,,,,,,,,,,,,,,,,,
Tangela,Vine Whip,Power Whip or Solar Beam,40,1.4660926865502342,1.4656155808590197,1.4725135795702253,1.4353730742118054,,,1.4114186931946495,1.4245257322774811,,,1.4067767415107797,1.4502691483054644,,,,1.465336011305329,,,1.3859190763660088,,1.3825843469505343,,,,,1.4379407107375761,,1.4104559026613337,,,,,,1.392627583455511,,1.370751509868193,1.3899250845058273,1.4498444293832862,,,,,,,1.4291786097064798,1.3595620723571817,,
(Unscaled),,,,3.5943844,3.589977,3.610646,2.8028164,,,3.3875206,3.3623333,,,2.8241565,3.552387,,,,2.087314,,,0.8263591,,1.4461806,,,,,0.7291898,,0.59255725,,,,,,0.8183654,,0.7884098,0.8121866,1.0341086,,,,,,,1.0081631,0.8844773,,
Shadow Exeggutor,Bullet Seed or Confusion,Seed Bomb or Solar Beam,40,1.1924402248730983,1.19324436703985,1.1922467067069762,1.0840823701031583,1.0534762490950942,1.0609677000908029,1.1972063037846208,1.1826729935550626,1.1040868056648092,1.0932167803349424,1.04108775872685,1.158429052781025,1.1529847767064938,1.1821522466752001,1.067268201664702,1.2185173198845038,1.0419316590001153,1.0608798186957515,1.0461616912940552,1.0529974533391562,1.129946029538677,1.097944466589751,1.11867771757471,1.10757498629891,1.082726799788219,1.080977663491137,1.1200678101914197,1.096881317949289,1.0894000815851135,1.0727578467845265,1.0519696877405582,1.0885017088290014,1.038498741598001,1.0598689431667525,1.0595356751804095,1.0406599067643243,1.0737278262048155,1.0,1.027838744324098,1.0772609178020531,1.0572684017754794,1.0574486022312917,1.057750099482575,1.0275696087329336,1.1000969855518252,1.021580193225398,1.1217496314048996,1.0
(Unscaled),,,,2.9234772,2.9228127,2.9234235,2.11686,2.2371235,1.7380375,2.8733933,2.791484,3.30541,2.5731907,2.0900223,2.8375342,2.863593,1.8256106,2.8393774,1.7357304,0.5745207,0.66076577,0.62377757,0.9673816,1.1819214,0.6486324,0.81447893,0.8178831,0.5214325,0.54817134,0.70467114,0.46081907,0.82489043,0.5137403,0.75678146,0.7373442,0.87208503,0.6228227,0.53929514,0.5985523,0.6274204,0.71325487,0.45866013,0.39841616,0.7944367,0.80426675,0.80522704,0.6970912,0.7760242,0.66459966,0.8077709,0.3663298
Exeggutor (Alola),Bullet Seed,Solar Beam,40,1.3506026346628741,1.3575054491446508,1.3526932185549192,1.3310484671152307,1.2435246926710404,1.217387713367874,1.3003321136527837,,1.2835941627807965,1.2755522927173706,1.3307569757988533,,1.3753759761852256,1.2645717905636749,1.359690740094782,1.2768596683236677,1.24740895713381,1.2546764778301238,1.2732325093269894,1.2643047755224488,1.3675820252445965,1.2783186925762975,1.394706903663081,1.3266630997112987,1.2269278219232655,1.2507833652463878,1.263151421329212,1.2482768809956584,1.307680897186909,1.2746458109555125,1.3024058947108788,1.2385167591608839,1.265392843512189,1.2618254974752965,1.2025237098047679,1.2097754022707528,1.2959218493941183,1.3272090241739256,1.2179722078004034,1.2532090744519335,1.2547615138117136,1.298540087347314,1.2541390866035602,1.245564229217986,1.3012695871582427,1.242763239646112,1.3355898653393679,1.2064978879687103
(Unscaled),,,,3.3112402,3.3251648,3.316843,2.5991044,2.6407034,1.9942789,3.1209037,,3.8428183,3.0023682,2.671544,,3.4159315,1.952892,3.617343,1.8188368,0.6878208,0.78147143,0.75916934,1.1615082,1.4304882,0.75519204,1.0154483,0.9796676,0.59087855,0.634281,0.7946897,0.524423,0.990172,0.6104238,0.93694395,0.83896345,1.0626206,0.7415007,0.6120749,0.6958218,0.7572569,0.9466383,0.5435048,0.46348915,0.942834,0.9876344,0.9547309,0.8449762,0.91793424,0.8084926,0.96175706,0.44197613
Victreebel,Razor Leaf or Acid,Leaf Blade,40,1.4784501101103855,,1.481488595771094,1.3194042325026518,1.31412155220426,1.3099945823445476,,1.3649561667058634,1.3202375152289965,1.301263202705097,1.405858352505665,1.2891849060738674,1.3503008715412133,1.3022583082201908,1.332618395017922,1.3907081345154415,1.296439641958391,1.2812420245255753,1.3385115559070093,1.309887022131001,1.3026755975942976,1.2962951709597463,1.3068274756552538,1.3647303949150438,1.295740123889947,1.3500172547411098,1.3698265534082905,1.334564234917786,1.3663347248515103,1.3115123341813935,1.297437968478891,1.3011132964478411,1.2789049907979166,1.2940100153624345,1.3043308188993792,1.27186581406658,1.336920113413734,1.326771775143996,1.3225896957458345,1.3321150467994645,1.324521675356566,1.3200140315280757,1.2816306674805586,1.292120515639789,1.3332932056173796,1.2718480699502723,1.3450327878482282,1.3019387448140993
(Unscaled),,,,3.6246808,,3.632653,2.576367,2.7906203,2.145984,,3.2217302,3.952521,3.062886,2.8223128,3.1578164,3.3536541,2.0110917,3.5453193,1.9810095,0.7148563,0.7980177,0.7980922,1.2033843,1.3625962,0.765812,0.95146567,1.0077782,0.624018,0.6846032,0.8618025,0.56067383,1.0345845,0.62807906,0.93337005,0.88136595,1.0739675,0.76041365,0.6638939,0.7315341,0.78121376,0.94632643,0.59018904,0.49267188,0.99525213,1.0039669,0.97565925,0.87655944,0.94052416,0.82741404,0.9685569,0.47693896
Gourgeist (Super),Unknown,Unknown,40,,,,,,,,,,,,,,,,,,,,,,,,,,,,,,,,,,,,,,,,,,,,,,,,
(Unscaled),,,,,,,,,,,,,,,,,,,,,,,,,,,,,,,,,,,,,,,,,,,,,,,,,,,
Trevenant,Shadow Claw,Seed Bomb,40,,,,,,,,,,,,,,,1.4030794432148956,,,,,1.3859904481713812,,,,,,,1.4425820777328378,,,,,,,,,,,,,,1.3889118163103904,1.3788849168830495,1.3821434370524588,,,,,
(Unscaled),,,,,,,,,,,,,,,,,,3.732775,,,,,1.2733,,,,,,,0.90757537,,,,,,,,,,,,,,1.0436352,1.0487425,1.052176,,,,,
Cacturne,Sucker Punch or Poison Jab,Grass Knot,40,,,,,,1.357284945785293,,,,1.3859861099958832,,,,,1.2142556276913083,,,1.3086619865656886,,1.1772205345593068,,,,,,,1.2668596063942454,,,,,,1.3708462760886948,,,,,,,,1.1888695727765644,1.3147991468010494,1.264638664036602,1.3626835840181797,,,,
(Unscaled),,,,,,,,,2.2234533,,,,3.262305,,,,,3.2304251,,,0.81509614,,1.0815045,,,,,,,0.79702264,,,,,,1.1511757,,,,,,,,0.89332247,1.0000006,0.96272385,0.9244286,,,,
Serperior,Vine Whip,Frenzy Plant,40,1.4587413076303188,1.4667074102243467,1.4662581070615395,,,,,,,,,,,,,,,,,,,,,,,,,,,,,,,,,,,,,,,,,,,,,
(Unscaled),,,,3.5763612,3.5926514,3.5953074,,,,,,,,,,,,,,,,,,,,,,,,,,,,,,,,,,,,,,,,,,,,,
Shadow Torterra,Razor Leaf,Frenzy Plant,40,1.0316406396424065,1.0350110452600505,1.0284320454611262,1.0601829951689337,1.0554580595737364,1.0358695794831099,1.1384438115031073,1.1348105807959668,1.0148005438180578,1.0542286255421602,1.0111173038844463,1.246972545950193,1.078218266156452,1.0396821002817502,1.0404051471649547,1.0390511217927343,1.022307524343507,1.0301072995523652,1.004132185387591,1.0143120684903297,1.1035508573103527,1.0311838569532763,1.0964473475114924,1.0527066542134693,1.0397251249678308,1.0,1.0446701877157625,1.0190493598303312,1.0271575443197765,1.0085710950668285,1.080118461805823,1.0425157039399688,1.0288193408676691,1.0278663560100036,1.0269736873643347,1.0375488054668034,1.0561955195824886,1.1029108010156314,1.0077114999584078,1.0591471478727232,1.015886267662813,1.0649347879736446,1.0323021067186458,1.0498356177428176,1.0238984080774653,1.0628698849256804,1.0801952120201233,1.0357767781927651
(Unscaled),,,,2.5292487,2.5352254,2.5217452,2.0701923,2.241332,1.6969227,2.7323585,2.6785135,3.0381052,2.4814212,2.0298555,3.0544186,2.6779003,1.6055924,2.7679105,1.4800878,0.56369996,0.6415992,0.59871733,0.9318416,1.1543121,0.60919225,0.7982936,0.77736586,0.50072324,0.507107,0.65723604,0.4281205,0.77776057,0.48300147,0.77703154,0.70619357,0.8639567,0.60401666,0.52272135,0.5967629,0.6171756,0.7866565,0.4496786,0.39171693,0.76334196,0.80996054,0.7858544,0.7121962,0.72227263,0.6914611,0.7778476,0.3794359
Sceptile,Fury Cutter or Bullet Seed,Frenzy Plant,40,1.2553364614518208,1.261337793079066,1.2584120334628996,1.2629987230334598,1.1989423625846238,1.1775423378327852,1.2879237459386805,1.2824354111313068,1.2005096941494398,1.1972474900999626,1.2357176363017153,1.240223241999465,1.1926872337546257,1.2053242646930744,1.1370911541653637,1.3254025206727318,1.1584043586538693,1.1879324256475459,1.1939259559901954,1.1239395262749305,1.2071397644030137,1.1707219548488408,1.1848565713680594,1.2258780580649957,1.1628066906601469,1.2104132855590635,1.2107990212619257,1.1629141016800701,1.196621946289906,1.1958207906171014,1.1605129334139974,1.1973084485432919,1.1662091406367685,1.174387454495195,1.1798842559320581,1.1553812020562408,1.1924783652760114,1.249279237308257,1.167936356931413,1.1794353770249468,1.1122784207407526,1.1251859880887158,1.1236578817725997,1.1886987142909158,1.1850358587119756,1.1616381869146546,1.2064809690777283,1.1969872502864907
(Unscaled),,,,3.0776784,3.0896053,3.0856628,2.4662254,2.54603,1.9290057,3.0911226,3.026955,3.5940804,2.818056,2.480749,3.0378864,2.9621994,1.8613954,3.0251355,1.8879842,0.6387437,0.7399001,0.71188253,1.0325556,1.2626659,0.69162714,0.86266196,0.9052434,0.55999833,0.61380905,0.7617531,0.4885606,0.9060785,0.57267475,0.8348669,0.8110492,0.97933054,0.6901185,0.6005516,0.6645361,0.6968109,0.8910545,0.52117693,0.43620455,0.8357715,0.85578597,0.85540026,0.8063993,0.8359413,0.75571585,0.86878586,0.4384921
Shadow Tangela,Vine Whip,Power Whip,40,1.2790247047723802,1.2805430732481802,1.2789055920627366,1.2414795707118618,1.2101133034273102,1.2068191037213951,1.2238955585684157,1.2448217034511921,1.2105043985303738,1.1729483524154136,1.2347883882195752,1.247284777090726,1.2534410152990694,1.2055419022167106,1.2024816419687747,1.2453253546429142,1.1848983931072856,1.1781872227489076,1.2105726842693585,1.1558424509945215,1.216346568889561,1.19655435314505,1.190062286345227,1.2567065735033176,1.2090401679064646,1.2442198589252367,1.241709756021692,1.1938940038993373,1.2312092483836703,1.2098151418009058,1.2058968626876534,1.2054878868817351,1.1675727756471972,1.1932282016149856,1.227391214588144,1.1396428961998977,1.2018648782965486,1.2755213294232397,1.211385736705553,1.258904887559504,1.207055013505767,1.2601157627362216,1.216932728341261,1.1626187538906552,1.2023665240152828,1.1990302392195873,1.2260175023132232,1.1882604145226516
(Unscaled),,,,3.1357543,3.136648,3.1359136,2.4242055,2.5697522,1.9769658,2.9374497,2.9381747,3.6240025,2.7608612,2.4788835,3.0551834,3.1130896,1.8617315,3.1991014,1.7739174,0.6533525,0.73383033,0.7218082,1.0618646,1.2722962,0.70688814,0.8664521,0.92800856,0.582264,0.6309526,0.78120005,0.5015758,0.9322679,0.5793766,0.86751586,0.8165899,0.98047566,0.7011901,0.62473226,0.65548396,0.7022958,0.9097718,0.54056567,0.4655957,0.9069871,0.9584099,0.92640704,0.78870696,0.8481666,0.78004164,0.8828541,0.4352952
Meganium,Vine Whip,Frenzy Plant,40,1.394100142347515,1.403650345156722,1.3967573792969008,1.4477387296244202,1.357175178154567,,1.4022194241696744,1.3917148526234413,1.377923488024599,1.3906536255102964,1.41977176909956,1.4140823837867775,1.414880376731731,,,1.3720410035795998,1.3662726632373328,,1.37116729713117,,,1.3859430722056072,,1.4264580878004574,1.390514342910307,1.3650907993776462,,,1.4090072416561208,1.3935822916336045,1.3587054306235267,1.4095228520725835,,,1.4012597566374132,,,,1.381182067555784,1.4160021483778042,,,,,,,,
(Unscaled),,,,3.417882,3.4381952,3.4248896,2.8269625,2.8820474,,3.3654416,3.2848892,4.125221,3.2732913,2.8502445,3.4637487,3.514046,,,1.9544189,0.7533622,,0.8175633,,,0.81877327,,1.0533607,0.6696605,0.6922471,,,1.066896,0.6673821,0.97744554,0.9548019,,,0.71322995,,,,0.61633515,0.52369684,,,,,,,,
Leafeon,Razor Leaf,Leaf Blade,40,1.2634307606946937,1.2715998215121902,1.2676663285793113,1.2871267074978443,1.238289200044096,1.2580112168359365,1.2866624556994304,1.2592062077066999,1.280257161194115,1.2577473076274366,1.2543169936934166,1.256197653416412,1.2710873301939292,1.2768537086670828,1.2656422153527869,1.2399902138422885,1.2332541771883767,1.2465259523784142,1.2308474499520756,1.2497964500009362,1.2586518082585425,1.2341239126030432,1.2314397363231073,1.2691301138378772,1.2392509309852653,1.2351786703792296,1.2537503820538174,1.2503295446871736,1.2431791855054461,1.2403141971297362,1.2298034039003398,1.292789850274663,1.259329054706995,1.2435127936221768,1.2306984181046787,1.228653253381936,1.2417183775702572,1.3105325169388609,1.23767539541281,1.2762101767609637,1.2176734824234718,1.2144284262560499,1.2503611592178727,1.2680741988032518,1.251299962922501,1.2549179904022445,1.2427789452868363,1.2604691182644712
(Unscaled),,,,3.097523,3.1147418,3.1083546,2.5133395,2.6295855,2.0608268,3.0880954,2.9721267,3.832828,2.9604592,2.5180879,3.0770152,3.1569166,1.9718591,3.3671348,1.7663177,0.68001586,0.7763949,0.7338971,1.1481795,1.3165474,0.7290831,0.8965779,0.93718266,0.59681326,0.62636775,0.7887752,0.52528536,0.9413315,0.5939825,0.8847141,0.8757277,1.0575285,0.7307394,0.6264156,0.7066797,0.72558373,0.9347437,0.5522971,0.47199592,0.91496587,0.92366135,0.9518549,0.8602467,0.88268495,0.8164,0.894924,0.4617474
Chesnaught,Low Kick or Vine Whip,Solar Beam,40,1.3254915688087836,1.3354518758570744,1.3323493319206257,1.3488427282683313,1.2787177570831068,1.2329878751344876,1.2899455101950685,1.3001729385836491,1.322675423978539,1.2824709541549995,1.3128144929426213,1.2992885718748493,1.291252896410249,1.2660836622988287,1.374720231723159,1.3137895667203245,1.271940803003847,1.2667260991367768,1.2953539056793795,1.2812873764603898,1.3447531118842375,1.2570377966360737,1.237799126983026,1.3597950232982852,1.2698339594304673,1.2874227727087182,1.282121715618697,1.2365051751113552,1.3101128271830356,1.257098481342953,1.2389549859650073,1.2878194763252153,1.3048526624713979,1.284420576064403,1.2878432107257647,1.24766351841668,1.2776350142314794,1.3398455169328183,1.279277686784865,1.3006700377653324,1.3126173218930395,1.2780362013950273,1.323121334640335,1.2888689265425126,1.2617526989633825,1.307896619105828,1.243540021088764,1.2899456446076734
(Unscaled),,,,3.249676,3.2711453,3.2669592,2.6338508,2.7154381,2.0198345,3.095975,3.0688212,3.9598196,3.0186532,2.6355238,3.182565,3.2070005,1.9552268,3.6573277,1.871442,0.70134765,0.7889765,0.7723593,1.17711,1.4066092,0.74261993,0.901208,1.0041337,0.6115418,0.6528611,0.80662453,0.5194775,0.99201345,0.60202044,0.8912977,0.8723608,1.0957572,0.7547785,0.65550184,0.71761376,0.7465712,0.95565134,0.5708616,0.4810422,0.98630714,0.9720397,1.0072446,0.8743536,0.89005846,0.8508658,0.89547205,0.47254553
Virizion,Zen Headbutt or Quick Attack,Leaf Blade,40,,1.5353612030698924,,,,,1.4424852567537276,,,,1.4334974432103895,,1.4721363008819293,1.4543524882198269,,,,,,,1.4370414248362402,1.4829179563470216,1.4771353253225055,,,,,,,,1.4855624326638808,,,,,,1.4896061083782957,,,1.4534116799765004,,,,,,,1.4917809229313022,
(Unscaled),,,,,3.7608166,,,,,3.4620829,,,,2.8777993,,3.6562488,2.2459724,,,,,,,1.5031426,0.8760631,1.0754622,,,,,,,,1.0687058,,,,,,0.87043405,,,0.53753245,,,,,,,1.0742301,
Mega Venusaur,Vine Whip,Frenzy Plant,40,1.0265455538763868,1.0281589423331687,1.0261598047983935,0.9999999999999999,1.0,1.0,1.0,1.0,1.0167179093133751,1.0,1.0,1.0,1.0,1.0,1.0352880151074118,1.0083000517388683,1.0,1.0,1.0007948464872742,1.0,1.0054856696202412,1.0031298656327658,1.0005252221309158,0.9999999999999999,1.020214125676605,1.0083109481825334,1.0,0.9999999999999999,1.0,1.008145930396695,1.005246855154932,1.0,1.0,1.0,1.0047084830180815,1.0,1.0,1.0425428430653407,1.0,1.0,1.0,1.0014715223221864,1.0,1.0,1.0114486188153107,1.0171051901034744,1.0021953922730913,1.0066724574413548
(Unscaled),,,,2.5167572,2.5184414,2.5161736,1.9526745,2.1235633,1.6381625,2.400082,2.3603177,3.0438454,2.353779,2.0075371,2.4494674,2.4836347,1.5443109,2.7542968,1.4362841,0.5513996,0.62284696,0.59672743,0.9186932,1.0517361,0.5926188,0.7284553,0.7384449,0.4913269,0.51132154,0.62913257,0.42011753,0.75719696,0.48279786,0.7231693,0.6773937,0.8397555,0.58764124,0.51138854,0.5751661,0.5843384,0.74359876,0.44623744,0.36984184,0.75140494,0.7616921,0.76126397,0.6783883,0.71349037,0.6616884,0.72168,0.36877412
Ferrothorn,Unknown,Unknown,40,,,,,,,,,,,,,,,,,,,,,,,,,,,,,,,,,,,,,,,,,,,,,,,,
(Unscaled),,,,,,,,,,,,,,,,,,,,,,,,,,,,,,,,,,,,,,,,,,,,,,,,,,,
Leavanny,Razor Leaf or Bug Bite,Leaf Blade,40,1.3559060269013514,1.3635367204375484,1.359371320649144,1.3503973140428676,1.3030515737392903,1.3162137455838478,1.3573642900534233,1.357426078701185,1.3253887356497374,1.2973967819408705,1.3446357230459154,1.353832592342319,1.3115185578619915,1.2972758270371596,1.2616536286054512,1.3294540180461243,1.2876805859126486,1.3062818031575525,1.3540083202865896,1.2808784260077248,1.3233846218267509,1.2830727611536386,1.3042792143479038,1.3429427165114147,1.2929279921088381,1.361536322709014,1.2954657076488665,1.3374078915488243,1.3530058282325907,1.3354359436103977,1.2917863425023097,1.3110567754025466,1.3321259580913731,1.2936223468591144,1.3455868733172132,1.2878029494436478,1.3234209834575308,1.3644687767782084,1.286302310267825,1.3343590330396367,1.2913795190114135,1.3231909788003227,1.3079628607669425,1.3303069937969154,1.3715564476396038,1.3141649836562457,1.3345788794903368,1.309858384439377
(Unscaled),,,,3.3242424,3.3399382,3.3332179,2.6368864,2.7671125,2.156172,3.2577856,3.2039568,3.9679427,3.0537853,2.6994061,3.3161688,3.257333,2.0033972,3.3565235,1.8937554,0.71002656,0.81361365,0.8073322,1.1767343,1.3842578,0.7580006,0.94961035,0.9916892,0.6226637,0.6904446,0.81501967,0.5618685,1.0244919,0.639536,0.9293043,0.8881016,1.1186601,0.76018584,0.6848929,0.7407006,0.7733257,0.973214,0.57399625,0.4935018,0.97034895,1.0063832,0.995705,0.9024647,0.9675156,0.85494375,0.96102905,0.47984016
Shiftry,Razor Leaf or Snarl,Leaf Blade,40,1.3611271081037173,1.3591834876730324,1.3601149497008396,,1.3003165010433175,1.362188610714749,1.3759861121411687,1.3706564586623233,1.3847035104670145,1.3529248922689854,,1.3408140479844721,1.342480035409394,1.3416224673412591,1.2527300993528832,1.411733701378978,1.3126608361703564,1.3488150443890743,1.338564385785576,1.2581314414866684,1.370902490167047,1.314425838004541,1.3344056618506195,1.3949998165062825,1.3573509971948452,1.35526255800058,1.3161784010006032,1.3436877294789389,1.3726521036217578,1.3521731613157573,1.3266903647363337,1.3942958134981178,1.3364182788918917,1.3349262213114927,1.3332088781913176,1.32171628334841,1.3509042020856408,1.4366962541734907,1.3664950883547557,1.3646262953915653,1.248618035436392,1.2360834181706974,1.2809833887186333,1.3290940454014315,1.3644684857913651,1.3126897171921488,1.3454602845636108,1.3238630327098697
(Unscaled),,,,3.3370428,3.3292751,3.3350413,,2.7613044,2.2314863,3.3024795,3.2351847,4.145519,3.1844862,,3.2842803,3.33423,2.0718822,3.3327832,2.0109596,0.72380066,0.84010535,0.7981237,1.1558368,1.4339614,0.77652305,0.9715446,1.0301305,0.6536893,0.68726313,0.8280507,0.56450677,1.039368,0.6475514,0.95441407,0.9444872,1.1222646,0.7844577,0.6785926,0.7602064,0.7893852,1.0247306,0.60978127,0.5046959,0.93821776,0.94013155,0.9751665,0.90164185,0.96251565,0.853984,0.96886474,0.48497048
Shadow Tangrowth,Vine Whip,Power Whip,40,1.0295574117641397,1.0336334394380493,1.0334947914563817,1.0458363644324744,1.023686320064017,1.0000447452557362,1.0436693412975058,1.0481162768893357,1.0,1.029131367048478,1.0147537995686358,1.0298325668673933,1.04427281516078,1.0177628740430442,1.0,1.0,1.007787818489531,1.012460813808901,1.0,1.0140589154246489,1.0,0.9999999999999999,1.0,1.0358767458479299,1.0,1.0049226297408633,1.020955662810463,1.0027612987251446,1.0242764313264014,0.9999999999999999,1.0,1.0450745260843142,1.0206656580397508,1.0214696640419587,1.0,1.0156114903155802,1.0118140447384598,1.0684706576206064,1.0131495241636381,1.0384210720993603,1.016429170667949,1.020578960938524,1.013300287940857,1.0311132134796546,1.0,1.0,1.0,1.0456364729268546
(Unscaled),,,,2.5241413,2.531851,2.5341592,2.042178,2.1738627,1.6382358,2.504892,2.4738874,2.9937954,2.4223478,2.0371559,2.5225413,2.5935922,1.5717423,2.660416,1.424461,0.5556938,0.63060814,0.5962535,0.93160903,1.0459981,0.59076977,0.7280729,0.7649379,0.48159194,0.5096033,0.64231646,0.4212776,0.775579,0.4788968,0.71939474,0.7079269,0.8571096,0.6002577,0.50899196,0.5841453,0.5912418,0.7620919,0.45210525,0.38405156,0.7637499,0.7762247,0.771389,0.69949514,0.70541435,0.65056044,0.7200991,0.3830478
Bellossom,Unknown,Unknown,40,,,,,,,,,,,,,,,,,,,,,,,,,,,,,,,,,,,,,,,,,,,,,,,,
(Unscaled),,,,,,,,,,,,,,,,,,,,,,,,,,,,,,,,,,,,,,,,,,,,,,,,,,,
Celebi,Confusion or Charge Beam,Leaf Storm,40,,,1.3479027368762768,1.2682731300070746,1.3424212030788065,1.3823781218285731,,1.4032770249530393,,1.3643637741691128,1.2346686893108976,1.4161138458099096,1.4290885853704651,,,,,,,,,,1.373859540713574,,,,,,,,,1.414632967504717,,,,,,1.2650637772722113,,1.422204015640848,1.3726096876605576,,,,,,1.3973698897832256,
(Unscaled),,,,,,3.3050966,2.4765246,2.8507164,2.26456,,3.3121796,,3.2114108,2.4786432,3.4687247,3.549334,,,,,,,,,,1.0002699,,,,,,,,,0.95826346,,,,,,0.9023129,,0.52599055,1.0313857,,,,,,1.0062448,
Tangrowth,Vine Whip,Power Whip or Solar Beam,40,1.1881563800373143,1.188719260149249,1.1885911626656944,1.2507087586794419,1.186558460489499,1.183597903138425,1.1801315538385775,1.1925392077515669,1.1728284103850248,1.2003338036408686,1.2285539828877885,1.222356541671059,1.1950916533739846,1.1892751647352875,1.2127676273184345,1.1778929012447517,1.1744378487035536,1.2100226033053127,1.1804245509669964,1.1939450515144774,1.2274843520270255,1.1850639378517964,1.191457476304914,1.1915900563467905,1.2112021642222666,1.1713405652061597,1.2114530964435684,1.2045336456205482,1.2357083419880608,1.2022596517663093,1.1948217747602659,1.2341282034361998,1.195916906766315,1.2218327290984548,1.2200399000408573,1.207071418152078,1.2020556923864663,1.2251867274316683,1.197485804866575,1.22177004094507,1.1827729000557277,1.1656678800940712,1.1734788919538646,1.2526762327711134,1.2048104777000923,1.206068785861003,1.2024064465571473,1.21497388418851
(Unscaled),,,,2.9129746,2.9117286,2.91446,2.4422271,2.519732,1.9389257,2.8324125,2.8147714,3.5112083,2.8253205,2.4663677,2.9941225,2.9681711,1.8366106,3.2264664,1.6778625,0.64758456,0.7536589,0.70383227,1.0968692,1.2839463,0.70009995,0.8674679,0.8799236,0.5833052,0.593995,0.7621646,0.5060457,0.9356746,0.5757583,0.8595485,0.83599067,1.0042778,0.7179993,0.6209905,0.69426656,0.7024073,0.8738704,0.534363,0.45186168,0.8887414,0.8865754,0.8933272,0.8498009,0.8498906,0.78462064,0.8658518,0.44508114
Shadow Victreebel,Razor Leaf or Acid,Leaf Blade,40,1.2969658593971694,1.3116609041885439,1.2962225161284797,1.120227001479253,1.0944197896055183,1.0987410589608784,1.2016717345490697,1.131026979969688,1.1104171647801984,1.1026718736126035,1.1958758819450959,1.1820573729619754,1.1542106011000732,1.1026863826448419,1.3030417047559477,1.1556281990170318,1.1024429470025008,1.0691603921451267,1.1384288729542047,1.1395146932621252,1.1200888414615666,1.1173262978571161,1.1319882940293478,1.1939019959376793,1.1295514206487758,1.1380182091747895,1.1414563547393517,1.1302625243940665,1.170712703336791,1.1053370997676324,1.1258065356441167,1.0979793582373147,1.0862461037766349,1.083226051323423,1.1248293587977303,1.0615088406635926,1.1228319069908805,1.1404098790100095,1.1535665855379593,1.137051259532994,1.1049513462075455,1.1568582051766503,1.0886464651676606,1.0861331187462993,1.1492983237440522,1.105563381628308,1.1676503275729688,1.096491112653134
(Unscaled),,,,3.1797402,3.2128701,3.1783752,2.1874387,2.3240697,1.7999164,2.8841107,2.669583,3.3243618,2.5954459,2.4007652,2.895411,2.8666375,1.7028906,3.466633,1.6461473,0.6078866,0.6659233,0.6787922,1.0468644,1.1716108,0.6600826,0.82417,0.88163084,0.54398286,0.577097,0.71812737,0.4748431,0.8864601,0.5293424,0.8098993,0.7437643,0.91218114,0.6365483,0.5725291,0.6105439,0.6561138,0.8134029,0.5147646,0.42052913,0.8302659,0.879875,0.82874733,0.73682,0.81073153,0.7192358,0.84082395,0.40167737
