Rank,Raidboss,raid_move1,raid_move2,defender_name,defender_move1,defender_move2,estimator,effective_deaths,effective_combat_time
23,Pidgeot Mega,Air slash,Hurricane,Darmanitan Galarian Standard Form,Ice Fang,Avalanche,2.3160188,41.70618088538531,606378
26,Pidgeot Mega,Steel wing,Hurricane,Darmanitan Galarian Standard Form,Ice Fang,Avalanche,2.3733823,44.89482438759235,613768
21,Pidgeot Mega,Air slash,Aerial ace,Darmanitan Galarian Standard Form,Ice Fang,Avalanche,2.177368,32.02696713527268,588364
18,Pidgeot Mega,Steel wing,Aerial ace,Darmanitan Galarian Standard Form,Ice Fang,Avalanche,2.1462615,33.275698137402316,580263
15,Pidgeot Mega,Steel wing,Feather dance,Darmanitan Galarian Standard Form,Ice Fang,Avalanche,2.0477512,24.549042403014315,568607
15,Pidgeot Mega,Air slash,Feather dance,Darmanitan Galarian Standard Form,Ice Fang,Avalanche,2.0356717,23.534349506961906,576652
26,Pidgeot Mega,Random,Random,Darmanitan Galarian Standard Form,Ice Fang,Avalanche,2.3548026,40.92241197889607,622783
30,Ampharos Mega,Volt switch,Power gem,Darmanitan Galarian Standard Form,Ice Fang,Avalanche,2.9892929,61.621716482973916,768828
28,Ampharos Mega,Charge beam,Power gem,Darmanitan Galarian Standard Form,Ice Fang,Avalanche,2.7665844,50.575154805633936,725650
24,Ampharos Mega,Charge beam,Thunder,Darmanitan Galarian Standard Form,Ice Fang,Avalanche,2.541399,38.323486107222124,687043
23,Ampharos Mega,Volt switch,Thunder,Darmanitan Galarian Standard Form,Ice Fang,Avalanche,2.5247226,44.19106802419086,671394
23,Ampharos Mega,Volt switch,Thunder punch,Darmanitan Galarian Standard Form,Ice Fang,Avalanche,2.4593434,34.624690551259434,664824
22,Ampharos Mega,Charge beam,Thunder punch,Darmanitan Galarian Standard Form,Ice Fang,Avalanche,2.4609284,34.19151972156796,666718
29,Ampharos Mega,Random,Random,Darmanitan Galarian Standard Form,Ice Fang,Avalanche,2.80559,48.94334757092867,740358
24,Aerodactyl Mega,Bite,Earth power,Darmanitan Galarian Standard Form,Ice Fang,Avalanche,2.7092,44.48613696949954,725775
27,Aerodactyl Mega,Rock throw,Earth power,Darmanitan Galarian Standard Form,Ice Fang,Avalanche,2.8011096,51.59772072342684,730628
23,Aerodactyl Mega,Steel wing,Earth power,Darmanitan Galarian Standard Form,Ice Fang,Avalanche,2.6928136,47.276991867381454,714637
30,Aerodactyl Mega,Bite,Ancient power,Darmanitan Galarian Standard Form,Ice Fang,Avalanche,2.762741,48.5115748976958,734204
29,Aerodactyl Mega,Rock throw,Ancient power,Darmanitan Galarian Standard Form,Ice Fang,Avalanche,2.8809378,59.58789645164912,738956
30,Aerodactyl Mega,Steel wing,Iron head,Darmanitan Galarian Standard Form,Ice Fang,Avalanche,2.7683203,58.54051690587273,707445
30,Aerodactyl Mega,Rock throw,Iron head,Darmanitan Galarian Standard Form,Ice Fang,Avalanche,2.8437662,63.52649838439429,722000
12,Salamence Mega,Bite,Fire blast,Darmanitan Galarian Standard Form,Ice Fang,Avalanche,2.6354666,53.38145626824468,678133
9,Salamence Mega,Bite,Draco meteor,Darmanitan Galarian Standard Form,Ice Fang,Avalanche,2.615664,50.58827913460086,679202
3,Salamence Mega,Fire fang,Draco meteor,Darmanitan Galarian Standard Form,Ice Fang,Avalanche,2.3236468,43.39486571273229,607456
4,Salamence Mega,Dragon tail,Draco meteor,Darmanitan Galarian Standard Form,Ice Fang,Avalanche,2.3358483,42.29616737147773,613388
6,Salamence Mega,Dragon tail,Fire blast,Darmanitan Galarian Standard Form,Ice Fang,Avalanche,2.3840473,46.58715342793835,617829
6,Salamence Mega,Fire fang,Fire blast,Darmanitan Galarian Standard Form,Ice Fang,Avalanche,2.3910937,47.951186477690364,618569
3,Salamence Mega,Fire fang,Hydro pump,Darmanitan Galarian Standard Form,Ice Fang,Avalanche,2.1984193,44.84014825077042,565267
4,Salamence Mega,Dragon tail,Hydro pump,Darmanitan Galarian Standard Form,Ice Fang,Avalanche,2.2011962,44.05605569363284,567522
3,Salamence Mega,Bite,Hydro pump,Darmanitan Galarian Standard Form,Ice Fang,Avalanche,2.0092673,34.73716960996926,538836
4,Salamence Mega,Random,Random,Darmanitan Galarian Standard Form,Ice Fang,Avalanche,2.2435327,40.8313493832424,587786
27,Rayquaza Mega,Dragon tail,Outrage,Darmanitan Galarian Standard Form,Ice Fang,Avalanche,2.774914,77.86641455319236,664457
28,Rayquaza Mega,Air slash,Outrage,Darmanitan Galarian Standard Form,Ice Fang,Avalanche,2.739057,76.27086837275112,657003
12,Rayquaza Mega,Dragon tail,Ancient power,Darmanitan Galarian Standard Form,Ice Fang,Avalanche,2.1551397,51.594862573110966,536801
12,Rayquaza Mega,Air slash,Ancient power,Darmanitan Galarian Standard Form,Ice Fang,Avalanche,2.1680207,51.37306404851991,540793
4,Rayquaza Mega,Air slash,Aerial ace,Darmanitan Galarian Standard Form,Ice Fang,Avalanche,1.7568082,33.463537556768124,456642
3,Rayquaza Mega,Dragon tail,Aerial ace,Darmanitan Galarian Standard Form,Ice Fang,Avalanche,1.7604244,33.94248436534961,456439
9,Rayquaza Mega,Random,Random,Darmanitan Galarian Standard Form,Ice Fang,Avalanche,2.0847852,47.32639535584495,525664
22,Altaria Mega,Dragon breath,Dazzling gleam,Darmanitan Galarian Standard Form,Ice Fang,Avalanche,2.889783,48.00522261241993,772997
16,Altaria Mega,Peck,Dazzling gleam,Darmanitan Galarian Standard Form,Ice Fang,Avalanche,2.817528,44.87466966756003,755895
20,Altaria Mega,Dragon breath,Dragon pulse,Darmanitan Galarian Standard Form,Ice Fang,Avalanche,2.8618765,47.02002522331718,766708
7,Altaria Mega,Peck,Sky attack,Darmanitan Galarian Standard Form,Ice Fang,Avalanche,2.6137793,36.5160401233318,707184
14,Altaria Mega,Peck,Dragon pulse,Darmanitan Galarian Standard Form,Ice Fang,Avalanche,2.7957962,43.98730528471271,751016
9,Altaria Mega,Dragon breath,Sky attack,Darmanitan Galarian Standard Form,Ice Fang,Avalanche,2.624244,37.38127208782649,709968
11,Altaria Mega,Random,Random,Darmanitan Galarian Standard Form,Ice Fang,Avalanche,2.6946938,38.530323588242275,734891
11,Garchomp Mega,Mud shot,Fire blast,Darmanitan Galarian Standard Form,Ice Fang,Avalanche,2.3394308,48.82483713611224,599626
17,Garchomp Mega,Mud shot,Earthquake,Darmanitan Galarian Standard Form,Ice Fang,Avalanche,2.4563134,52.56330917169093,626887
6,Garchomp Mega,Dragon tail,Fire blast,Darmanitan Galarian Standard Form,Ice Fang,Avalanche,2.1182504,42.27579084688072,547584
6,Garchomp Mega,Dragon tail,Earthquake,Darmanitan Galarian Standard Form,Ice Fang,Avalanche,2.1466126,43.506845972606754,553821
9,Garchomp Mega,Dragon tail,Outrage,Darmanitan Galarian Standard Form,Ice Fang,Avalanche,2.2153203,51.43879620495411,555420
5,Garchomp Mega,Mud shot,Outrage,Darmanitan Galarian Standard Form,Ice Fang,Avalanche,1.9353391,40.13834623308323,496339
4,Garchomp Mega,Dragon tail,Sand tomb,Darmanitan Galarian Standard Form,Ice Fang,Avalanche,1.7777317,29.565004046839714,477538
5,Garchomp Mega,Mud shot,Sand tomb,Darmanitan Galarian Standard Form,Ice Fang,Avalanche,1.7695756,28.061732289477803,475623
5,Garchomp Mega,Random,Random,Darmanitan Galarian Standard Form,Ice Fang,Avalanche,2.0168793,39.03962550499163,525469
29,Venusaur Mega,Vine whip,Petal blizzard,Darmanitan Galarian Standard Form,Ice Fang,Avalanche,2.929645,37.69534299324198,794949
25,Latias Mega,Charm,Outrage,Darmanitan Galarian Standard Form,Ice Fang,Avalanche,3.939269,74.39267943624282,1023075
22,Latias Mega,Zen headbutt,Outrage,Darmanitan Galarian Standard Form,Ice Fang,Avalanche,3.792813,67.63340494301359,1004414
13,Latias Mega,Dragon breath,Outrage,Darmanitan Galarian Standard Form,Ice Fang,Avalanche,3.628263,61.39024692663984,974039
28,Latias Mega,Charm,Thunder,Darmanitan Galarian Standard Form,Ice Fang,Avalanche,3.5887856,55.54286796233611,970559
21,Latias Mega,Dragon breath,Thunder,Darmanitan Galarian Standard Form,Ice Fang,Avalanche,3.4493835,44.244061799801784,937833
27,Latias Mega,Zen headbutt,Thunder,Darmanitan Galarian Standard Form,Ice Fang,Avalanche,3.5726473,52.708076655146584,965724
26,Latias Mega,Random,Random,Darmanitan Galarian Standard Form,Ice Fang,Avalanche,3.6389747,58.532916310500305,970416
15,Latios Mega,Zen headbutt,Dragon claw,Darmanitan Galarian Standard Form,Ice Fang,Avalanche,2.8709815,50.1065388382142,762796
16,Latios Mega,Dragon breath,Dragon claw,Darmanitan Galarian Standard Form,Ice Fang,Avalanche,2.9051418,47.62143780751211,782650
23,Sceptile Mega,Bullet seed,Earthquake,Darmanitan Galarian Standard Form,Ice Fang,Avalanche,2.0057125,43.18012028376015,511799
6,Sceptile Mega,Fury cutter,Leaf blade,Darmanitan Galarian Standard Form,Ice Fang,Avalanche,1.6548297,31.93444510839954,430875
5,Sceptile Mega,Fury cutter,Earthquake,Darmanitan Galarian Standard Form,Ice Fang,Avalanche,1.569392,26.734645962448695,422660
3,Sceptile Mega,Bullet seed,Leaf blade,Darmanitan Galarian Standard Form,Ice Fang,Avalanche,1.5522385,28.110420329746002,408230
3,Sceptile Mega,Fury cutter,Aerial ace,Darmanitan Galarian Standard Form,Ice Fang,Avalanche,1.418665,19.042424969706584,385530
3,Sceptile Mega,Fury cutter,Dragon claw,Darmanitan Galarian Standard Form,Ice Fang,Avalanche,1.4312582,21.445249381078046,385884
3,Sceptile Mega,Bullet seed,Dragon claw,Darmanitan Galarian Standard Form,Ice Fang,Avalanche,1.4544352,23.32993977471418,391208
3,Sceptile Mega,Bullet seed,Aerial ace,Darmanitan Galarian Standard Form,Ice Fang,Avalanche,1.4286498,19.55938354050734,386358
4,Sceptile Mega,Random,Random,Darmanitan Galarian Standard Form,Ice Fang,Avalanche,1.5291438,24.77317791744127,408200
